#################################################
# Nest Camera Program Generator Report File
# AdeliePenguin Template
# Site name                     : WHIT2
# Subject/template              : AdeliePenguin
# KBN 2013/08/29
# Longitude                     : 110.530
# Solar noon occurs at          : 04:37 UTC
# Template shifted by           : 05:00
# Template shift delta          : 00h -22m
# Leap year                     : False
#
# Serial String Length = 25 of 30 characters
# Program file contains 73 events
# Summary count of events for 1 year
 "picture" = 1271 
 "servo s" = 365 

# Summary of times used by events - seconds (Days HH:MM:SS)
Start        = 2001-01-01T00:00:00
End          = 2002-01-01T00:00:00
Days         = 365
Picture      = 25420 seconds (7:03:40) (0.1 % of total)
Camera Pulse = 0 seconds (0:00:00) (0.0 % of total)
Servo settle = 547 seconds (0:09:07.500000) (0.0 % of total)
Idle time    = 31510032 seconds (364 days, 16:47:12.499999) (99.9 % of total)

# Summary of energy used by events
Idle         = 26468.43 J (30.2 %) 
Pictures     = 60779.22 J (69.3 %) 
Camera Pulse = 0.00 J (0.0 %) 
Servo settle = 438.00 J (0.5 %) 
Year total   = 87685.65 J 
Year total compared to total available battery energy :
     nominal = 25.4 %
     neg35C  = 54.9 %

# Summary of available battery energy
Battery model            : winter
Battery voltage          : 12.0 V
Battery Ah (nominal)     : 8.0 Ah
Battery Energy (nominal) : 345600.0 J
Battery Ah (neg35C)      : 3.7 Ah
Battery Energy (neg35C)  : 159840.0 J

####################################################
# Summary of power consumption by month

Month        = January
Start        = 2001-01-01T00:00:00
End          = 2001-01-31T23:59:59.999999
Days         = 31
Idle         = 2244.61 J (13.1 %) 
Pictures     = 14824.20 J (86.7 %) 
Camera Pulse = 0.00 J (0.0 %) 
Servo settle = 37.20 J (0.2 %) 
Period total = 17106.01 J 
Period total compared to total available battery energy :
  nominal    = 4.9 %
  neg35C     = 10.7 %

Month        = February
Start        = 2001-02-01T00:00:00
End          = 2001-02-28T23:59:59.999999
Days         = 28
Idle         = 2027.39 J (13.1 %) 
Pictures     = 13389.60 J (86.7 %) 
Camera Pulse = 0.00 J (0.0 %) 
Servo settle = 33.60 J (0.2 %) 
Period total = 15450.59 J 
Period total compared to total available battery energy :
  nominal    = 4.5 %
  neg35C     = 9.7 %

Month        = March
Start        = 2001-03-01T00:00:00
End          = 2001-03-31T23:59:59.999999
Days         = 31
Idle         = 2249.73 J (89.1 %) 
Pictures     = 239.10 J (9.5 %) 
Camera Pulse = 0.00 J (0.0 %) 
Servo settle = 37.20 J (1.5 %) 
Period total = 2526.03 J 
Period total compared to total available battery energy :
  nominal    = 0.7 %
  neg35C     = 1.6 %

Month        = April
Start        = 2001-04-01T00:00:00
End          = 2001-04-30T23:59:59.999999
Days         = 30
Idle         = 2177.17 J (90.5 %) 
Pictures     = 191.28 J (8.0 %) 
Camera Pulse = 0.00 J (0.0 %) 
Servo settle = 36.00 J (1.5 %) 
Period total = 2404.45 J 
Period total compared to total available battery energy :
  nominal    = 0.7 %
  neg35C     = 1.5 %

Month        = May
Start        = 2001-05-01T00:00:00
End          = 2001-05-31T23:59:59.999999
Days         = 31
Idle         = 2249.73 J (89.1 %) 
Pictures     = 239.10 J (9.5 %) 
Camera Pulse = 0.00 J (0.0 %) 
Servo settle = 37.20 J (1.5 %) 
Period total = 2526.03 J 
Period total compared to total available battery energy :
  nominal    = 0.7 %
  neg35C     = 1.6 %

Month        = June
Start        = 2001-06-01T00:00:00
End          = 2001-06-30T23:59:59.999999
Days         = 30
Idle         = 2177.17 J (90.5 %) 
Pictures     = 191.28 J (8.0 %) 
Camera Pulse = 0.00 J (0.0 %) 
Servo settle = 36.00 J (1.5 %) 
Period total = 2404.45 J 
Period total compared to total available battery energy :
  nominal    = 0.7 %
  neg35C     = 1.5 %

Month        = July
Start        = 2001-07-01T00:00:00
End          = 2001-07-31T23:59:59.999999
Days         = 31
Idle         = 2249.75 J (90.8 %) 
Pictures     = 191.28 J (7.7 %) 
Camera Pulse = 0.00 J (0.0 %) 
Servo settle = 37.20 J (1.5 %) 
Period total = 2478.23 J 
Period total compared to total available battery energy :
  nominal    = 0.7 %
  neg35C     = 1.6 %

Month        = August
Start        = 2001-08-01T00:00:00
End          = 2001-08-31T23:59:59.999999
Days         = 31
Idle         = 2249.73 J (89.1 %) 
Pictures     = 239.10 J (9.5 %) 
Camera Pulse = 0.00 J (0.0 %) 
Servo settle = 37.20 J (1.5 %) 
Period total = 2526.03 J 
Period total compared to total available battery energy :
  nominal    = 0.7 %
  neg35C     = 1.6 %

Month        = September
Start        = 2001-09-01T00:00:00
End          = 2001-09-30T23:59:59.999999
Days         = 30
Idle         = 2177.02 J (76.8 %) 
Pictures     = 621.66 J (21.9 %) 
Camera Pulse = 0.00 J (0.0 %) 
Servo settle = 36.00 J (1.3 %) 
Period total = 2834.68 J 
Period total compared to total available battery energy :
  nominal    = 0.8 %
  neg35C     = 1.8 %

Month        = October
Start        = 2001-10-01T00:00:00
End          = 2001-10-31T23:59:59.999999
Days         = 31
Idle         = 2249.30 J (59.7 %) 
Pictures     = 1482.42 J (39.3 %) 
Camera Pulse = 0.00 J (0.0 %) 
Servo settle = 37.20 J (1.0 %) 
Period total = 3768.92 J 
Period total compared to total available battery energy :
  nominal    = 1.1 %
  neg35C     = 2.4 %

Month        = November
Start        = 2001-11-01T00:00:00
End          = 2001-11-30T23:59:59.999999
Days         = 30
Idle         = 2172.20 J (13.1 %) 
Pictures     = 14346.00 J (86.7 %) 
Camera Pulse = 0.00 J (0.0 %) 
Servo settle = 36.00 J (0.2 %) 
Period total = 16554.20 J 
Period total compared to total available battery energy :
  nominal    = 4.8 %
  neg35C     = 10.4 %

Month        = December
Start        = 2001-12-01T00:00:00
End          = 2001-12-31T23:59:59.999999
Days         = 31
Idle         = 2244.61 J (13.1 %) 
Pictures     = 14824.20 J (86.7 %) 
Camera Pulse = 0.00 J (0.0 %) 
Servo settle = 37.20 J (0.2 %) 
Period total = 17106.01 J 
Period total compared to total available battery energy :
  nominal    = 4.9 %
  neg35C     = 10.7 %

# Analysis of runtime in winter months, (April (4) - September (9) inclusive) assuming no solar power:

Start        = 2001-04-01T00:00:00
End          = 2001-09-30T23:59:59.999999
Days         = 183
Idle         = 13280.59 J (87.5 %) 
Pictures     = 1673.70 J (11.0 %) 
Camera Pulse = 0.00 J (0.0 %) 
Servo settle = 219.60 J (1.4 %) 
Period total = 15173.89 J 
Period total compared to total available battery energy :
  nominal    = 4.4 %
  neg35C     = 9.5 %

# List of all events, sorted by time
01/01 01:00   "picture"
01/01 02:00   "picture"
01/01 03:00   "picture"
01/01 04:00   "picture"
01/01 05:00   "picture"
01/01 05:05   "servo s"
01/01 06:00   "picture"
01/01 07:00   "picture"
01/01 08:00   "picture"
01/01 09:00   "picture"
01/01 10:00   "picture"
01/02 01:00   "picture"
01/02 02:00   "picture"
01/02 03:00   "picture"
01/02 04:00   "picture"
01/02 05:00   "picture"
01/02 05:05   "servo s"
01/02 06:00   "picture"
01/02 07:00   "picture"
01/02 08:00   "picture"
01/02 09:00   "picture"
01/02 10:00   "picture"
01/03 01:00   "picture"
01/03 02:00   "picture"
01/03 03:00   "picture"
01/03 04:00   "picture"
01/03 05:00   "picture"
01/03 05:05   "servo s"
01/03 06:00   "picture"
01/03 07:00   "picture"
01/03 08:00   "picture"
01/03 09:00   "picture"
01/03 10:00   "picture"
01/04 01:00   "picture"
01/04 02:00   "picture"
01/04 03:00   "picture"
01/04 04:00   "picture"
01/04 05:00   "picture"
01/04 05:05   "servo s"
01/04 06:00   "picture"
01/04 07:00   "picture"
01/04 08:00   "picture"
01/04 09:00   "picture"
01/04 10:00   "picture"
01/05 01:00   "picture"
01/05 02:00   "picture"
01/05 03:00   "picture"
01/05 04:00   "picture"
01/05 05:00   "picture"
01/05 05:05   "servo s"
01/05 06:00   "picture"
01/05 07:00   "picture"
01/05 08:00   "picture"
01/05 09:00   "picture"
01/05 10:00   "picture"
01/06 01:00   "picture"
01/06 02:00   "picture"
01/06 03:00   "picture"
01/06 04:00   "picture"
01/06 05:00   "picture"
01/06 05:05   "servo s"
01/06 06:00   "picture"
01/06 07:00   "picture"
01/06 08:00   "picture"
01/06 09:00   "picture"
01/06 10:00   "picture"
01/07 01:00   "picture"
01/07 02:00   "picture"
01/07 03:00   "picture"
01/07 04:00   "picture"
01/07 05:00   "picture"
01/07 05:05   "servo s"
01/07 06:00   "picture"
01/07 07:00   "picture"
01/07 08:00   "picture"
01/07 09:00   "picture"
01/07 10:00   "picture"
01/08 01:00   "picture"
01/08 02:00   "picture"
01/08 03:00   "picture"
01/08 04:00   "picture"
01/08 05:00   "picture"
01/08 05:05   "servo s"
01/08 06:00   "picture"
01/08 07:00   "picture"
01/08 08:00   "picture"
01/08 09:00   "picture"
01/08 10:00   "picture"
01/09 01:00   "picture"
01/09 02:00   "picture"
01/09 03:00   "picture"
01/09 04:00   "picture"
01/09 05:00   "picture"
01/09 05:05   "servo s"
01/09 06:00   "picture"
01/09 07:00   "picture"
01/09 08:00   "picture"
01/09 09:00   "picture"
01/09 10:00   "picture"
01/10 01:00   "picture"
01/10 02:00   "picture"
01/10 03:00   "picture"
01/10 04:00   "picture"
01/10 05:00   "picture"
01/10 05:05   "servo s"
01/10 06:00   "picture"
01/10 07:00   "picture"
01/10 08:00   "picture"
01/10 09:00   "picture"
01/10 10:00   "picture"
01/11 01:00   "picture"
01/11 02:00   "picture"
01/11 03:00   "picture"
01/11 04:00   "picture"
01/11 05:00   "picture"
01/11 05:05   "servo s"
01/11 06:00   "picture"
01/11 07:00   "picture"
01/11 08:00   "picture"
01/11 09:00   "picture"
01/11 10:00   "picture"
01/12 01:00   "picture"
01/12 02:00   "picture"
01/12 03:00   "picture"
01/12 04:00   "picture"
01/12 05:00   "picture"
01/12 05:05   "servo s"
01/12 06:00   "picture"
01/12 07:00   "picture"
01/12 08:00   "picture"
01/12 09:00   "picture"
01/12 10:00   "picture"
01/13 01:00   "picture"
01/13 02:00   "picture"
01/13 03:00   "picture"
01/13 04:00   "picture"
01/13 05:00   "picture"
01/13 05:05   "servo s"
01/13 06:00   "picture"
01/13 07:00   "picture"
01/13 08:00   "picture"
01/13 09:00   "picture"
01/13 10:00   "picture"
01/14 01:00   "picture"
01/14 02:00   "picture"
01/14 03:00   "picture"
01/14 04:00   "picture"
01/14 05:00   "picture"
01/14 05:05   "servo s"
01/14 06:00   "picture"
01/14 07:00   "picture"
01/14 08:00   "picture"
01/14 09:00   "picture"
01/14 10:00   "picture"
01/15 01:00   "picture"
01/15 02:00   "picture"
01/15 03:00   "picture"
01/15 04:00   "picture"
01/15 05:00   "picture"
01/15 05:05   "servo s"
01/15 06:00   "picture"
01/15 07:00   "picture"
01/15 08:00   "picture"
01/15 09:00   "picture"
01/15 10:00   "picture"
01/16 01:00   "picture"
01/16 02:00   "picture"
01/16 03:00   "picture"
01/16 04:00   "picture"
01/16 05:00   "picture"
01/16 05:05   "servo s"
01/16 06:00   "picture"
01/16 07:00   "picture"
01/16 08:00   "picture"
01/16 09:00   "picture"
01/16 10:00   "picture"
01/17 01:00   "picture"
01/17 02:00   "picture"
01/17 03:00   "picture"
01/17 04:00   "picture"
01/17 05:00   "picture"
01/17 05:05   "servo s"
01/17 06:00   "picture"
01/17 07:00   "picture"
01/17 08:00   "picture"
01/17 09:00   "picture"
01/17 10:00   "picture"
01/18 01:00   "picture"
01/18 02:00   "picture"
01/18 03:00   "picture"
01/18 04:00   "picture"
01/18 05:00   "picture"
01/18 05:05   "servo s"
01/18 06:00   "picture"
01/18 07:00   "picture"
01/18 08:00   "picture"
01/18 09:00   "picture"
01/18 10:00   "picture"
01/19 01:00   "picture"
01/19 02:00   "picture"
01/19 03:00   "picture"
01/19 04:00   "picture"
01/19 05:00   "picture"
01/19 05:05   "servo s"
01/19 06:00   "picture"
01/19 07:00   "picture"
01/19 08:00   "picture"
01/19 09:00   "picture"
01/19 10:00   "picture"
01/20 01:00   "picture"
01/20 02:00   "picture"
01/20 03:00   "picture"
01/20 04:00   "picture"
01/20 05:00   "picture"
01/20 05:05   "servo s"
01/20 06:00   "picture"
01/20 07:00   "picture"
01/20 08:00   "picture"
01/20 09:00   "picture"
01/20 10:00   "picture"
01/21 01:00   "picture"
01/21 02:00   "picture"
01/21 03:00   "picture"
01/21 04:00   "picture"
01/21 05:00   "picture"
01/21 05:05   "servo s"
01/21 06:00   "picture"
01/21 07:00   "picture"
01/21 08:00   "picture"
01/21 09:00   "picture"
01/21 10:00   "picture"
01/22 01:00   "picture"
01/22 02:00   "picture"
01/22 03:00   "picture"
01/22 04:00   "picture"
01/22 05:00   "picture"
01/22 05:05   "servo s"
01/22 06:00   "picture"
01/22 07:00   "picture"
01/22 08:00   "picture"
01/22 09:00   "picture"
01/22 10:00   "picture"
01/23 01:00   "picture"
01/23 02:00   "picture"
01/23 03:00   "picture"
01/23 04:00   "picture"
01/23 05:00   "picture"
01/23 05:05   "servo s"
01/23 06:00   "picture"
01/23 07:00   "picture"
01/23 08:00   "picture"
01/23 09:00   "picture"
01/23 10:00   "picture"
01/24 01:00   "picture"
01/24 02:00   "picture"
01/24 03:00   "picture"
01/24 04:00   "picture"
01/24 05:00   "picture"
01/24 05:05   "servo s"
01/24 06:00   "picture"
01/24 07:00   "picture"
01/24 08:00   "picture"
01/24 09:00   "picture"
01/24 10:00   "picture"
01/25 01:00   "picture"
01/25 02:00   "picture"
01/25 03:00   "picture"
01/25 04:00   "picture"
01/25 05:00   "picture"
01/25 05:05   "servo s"
01/25 06:00   "picture"
01/25 07:00   "picture"
01/25 08:00   "picture"
01/25 09:00   "picture"
01/25 10:00   "picture"
01/26 01:00   "picture"
01/26 02:00   "picture"
01/26 03:00   "picture"
01/26 04:00   "picture"
01/26 05:00   "picture"
01/26 05:05   "servo s"
01/26 06:00   "picture"
01/26 07:00   "picture"
01/26 08:00   "picture"
01/26 09:00   "picture"
01/26 10:00   "picture"
01/27 01:00   "picture"
01/27 02:00   "picture"
01/27 03:00   "picture"
01/27 04:00   "picture"
01/27 05:00   "picture"
01/27 05:05   "servo s"
01/27 06:00   "picture"
01/27 07:00   "picture"
01/27 08:00   "picture"
01/27 09:00   "picture"
01/27 10:00   "picture"
01/28 01:00   "picture"
01/28 02:00   "picture"
01/28 03:00   "picture"
01/28 04:00   "picture"
01/28 05:00   "picture"
01/28 05:05   "servo s"
01/28 06:00   "picture"
01/28 07:00   "picture"
01/28 08:00   "picture"
01/28 09:00   "picture"
01/28 10:00   "picture"
01/29 01:00   "picture"
01/29 02:00   "picture"
01/29 03:00   "picture"
01/29 04:00   "picture"
01/29 05:00   "picture"
01/29 05:05   "servo s"
01/29 06:00   "picture"
01/29 07:00   "picture"
01/29 08:00   "picture"
01/29 09:00   "picture"
01/29 10:00   "picture"
01/30 01:00   "picture"
01/30 02:00   "picture"
01/30 03:00   "picture"
01/30 04:00   "picture"
01/30 05:00   "picture"
01/30 05:05   "servo s"
01/30 06:00   "picture"
01/30 07:00   "picture"
01/30 08:00   "picture"
01/30 09:00   "picture"
01/30 10:00   "picture"
01/31 01:00   "picture"
01/31 02:00   "picture"
01/31 03:00   "picture"
01/31 04:00   "picture"
01/31 05:00   "picture"
01/31 05:05   "servo s"
01/31 06:00   "picture"
01/31 07:00   "picture"
01/31 08:00   "picture"
01/31 09:00   "picture"
01/31 10:00   "picture"
02/01 01:00   "picture"
02/01 02:00   "picture"
02/01 03:00   "picture"
02/01 04:00   "picture"
02/01 05:00   "picture"
02/01 05:05   "servo s"
02/01 06:00   "picture"
02/01 07:00   "picture"
02/01 08:00   "picture"
02/01 09:00   "picture"
02/01 10:00   "picture"
02/02 01:00   "picture"
02/02 02:00   "picture"
02/02 03:00   "picture"
02/02 04:00   "picture"
02/02 05:00   "picture"
02/02 05:05   "servo s"
02/02 06:00   "picture"
02/02 07:00   "picture"
02/02 08:00   "picture"
02/02 09:00   "picture"
02/02 10:00   "picture"
02/03 01:00   "picture"
02/03 02:00   "picture"
02/03 03:00   "picture"
02/03 04:00   "picture"
02/03 05:00   "picture"
02/03 05:05   "servo s"
02/03 06:00   "picture"
02/03 07:00   "picture"
02/03 08:00   "picture"
02/03 09:00   "picture"
02/03 10:00   "picture"
02/04 01:00   "picture"
02/04 02:00   "picture"
02/04 03:00   "picture"
02/04 04:00   "picture"
02/04 05:00   "picture"
02/04 05:05   "servo s"
02/04 06:00   "picture"
02/04 07:00   "picture"
02/04 08:00   "picture"
02/04 09:00   "picture"
02/04 10:00   "picture"
02/05 01:00   "picture"
02/05 02:00   "picture"
02/05 03:00   "picture"
02/05 04:00   "picture"
02/05 05:00   "picture"
02/05 05:05   "servo s"
02/05 06:00   "picture"
02/05 07:00   "picture"
02/05 08:00   "picture"
02/05 09:00   "picture"
02/05 10:00   "picture"
02/06 01:00   "picture"
02/06 02:00   "picture"
02/06 03:00   "picture"
02/06 04:00   "picture"
02/06 05:00   "picture"
02/06 05:05   "servo s"
02/06 06:00   "picture"
02/06 07:00   "picture"
02/06 08:00   "picture"
02/06 09:00   "picture"
02/06 10:00   "picture"
02/07 01:00   "picture"
02/07 02:00   "picture"
02/07 03:00   "picture"
02/07 04:00   "picture"
02/07 05:00   "picture"
02/07 05:05   "servo s"
02/07 06:00   "picture"
02/07 07:00   "picture"
02/07 08:00   "picture"
02/07 09:00   "picture"
02/07 10:00   "picture"
02/08 01:00   "picture"
02/08 02:00   "picture"
02/08 03:00   "picture"
02/08 04:00   "picture"
02/08 05:00   "picture"
02/08 05:05   "servo s"
02/08 06:00   "picture"
02/08 07:00   "picture"
02/08 08:00   "picture"
02/08 09:00   "picture"
02/08 10:00   "picture"
02/09 01:00   "picture"
02/09 02:00   "picture"
02/09 03:00   "picture"
02/09 04:00   "picture"
02/09 05:00   "picture"
02/09 05:05   "servo s"
02/09 06:00   "picture"
02/09 07:00   "picture"
02/09 08:00   "picture"
02/09 09:00   "picture"
02/09 10:00   "picture"
02/10 01:00   "picture"
02/10 02:00   "picture"
02/10 03:00   "picture"
02/10 04:00   "picture"
02/10 05:00   "picture"
02/10 05:05   "servo s"
02/10 06:00   "picture"
02/10 07:00   "picture"
02/10 08:00   "picture"
02/10 09:00   "picture"
02/10 10:00   "picture"
02/11 01:00   "picture"
02/11 02:00   "picture"
02/11 03:00   "picture"
02/11 04:00   "picture"
02/11 05:00   "picture"
02/11 05:05   "servo s"
02/11 06:00   "picture"
02/11 07:00   "picture"
02/11 08:00   "picture"
02/11 09:00   "picture"
02/11 10:00   "picture"
02/12 01:00   "picture"
02/12 02:00   "picture"
02/12 03:00   "picture"
02/12 04:00   "picture"
02/12 05:00   "picture"
02/12 05:05   "servo s"
02/12 06:00   "picture"
02/12 07:00   "picture"
02/12 08:00   "picture"
02/12 09:00   "picture"
02/12 10:00   "picture"
02/13 01:00   "picture"
02/13 02:00   "picture"
02/13 03:00   "picture"
02/13 04:00   "picture"
02/13 05:00   "picture"
02/13 05:05   "servo s"
02/13 06:00   "picture"
02/13 07:00   "picture"
02/13 08:00   "picture"
02/13 09:00   "picture"
02/13 10:00   "picture"
02/14 01:00   "picture"
02/14 02:00   "picture"
02/14 03:00   "picture"
02/14 04:00   "picture"
02/14 05:00   "picture"
02/14 05:05   "servo s"
02/14 06:00   "picture"
02/14 07:00   "picture"
02/14 08:00   "picture"
02/14 09:00   "picture"
02/14 10:00   "picture"
02/15 01:00   "picture"
02/15 02:00   "picture"
02/15 03:00   "picture"
02/15 04:00   "picture"
02/15 05:00   "picture"
02/15 05:05   "servo s"
02/15 06:00   "picture"
02/15 07:00   "picture"
02/15 08:00   "picture"
02/15 09:00   "picture"
02/15 10:00   "picture"
02/16 01:00   "picture"
02/16 02:00   "picture"
02/16 03:00   "picture"
02/16 04:00   "picture"
02/16 05:00   "picture"
02/16 05:05   "servo s"
02/16 06:00   "picture"
02/16 07:00   "picture"
02/16 08:00   "picture"
02/16 09:00   "picture"
02/16 10:00   "picture"
02/17 01:00   "picture"
02/17 02:00   "picture"
02/17 03:00   "picture"
02/17 04:00   "picture"
02/17 05:00   "picture"
02/17 05:05   "servo s"
02/17 06:00   "picture"
02/17 07:00   "picture"
02/17 08:00   "picture"
02/17 09:00   "picture"
02/17 10:00   "picture"
02/18 01:00   "picture"
02/18 02:00   "picture"
02/18 03:00   "picture"
02/18 04:00   "picture"
02/18 05:00   "picture"
02/18 05:05   "servo s"
02/18 06:00   "picture"
02/18 07:00   "picture"
02/18 08:00   "picture"
02/18 09:00   "picture"
02/18 10:00   "picture"
02/19 01:00   "picture"
02/19 02:00   "picture"
02/19 03:00   "picture"
02/19 04:00   "picture"
02/19 05:00   "picture"
02/19 05:05   "servo s"
02/19 06:00   "picture"
02/19 07:00   "picture"
02/19 08:00   "picture"
02/19 09:00   "picture"
02/19 10:00   "picture"
02/20 01:00   "picture"
02/20 02:00   "picture"
02/20 03:00   "picture"
02/20 04:00   "picture"
02/20 05:00   "picture"
02/20 05:05   "servo s"
02/20 06:00   "picture"
02/20 07:00   "picture"
02/20 08:00   "picture"
02/20 09:00   "picture"
02/20 10:00   "picture"
02/21 01:00   "picture"
02/21 02:00   "picture"
02/21 03:00   "picture"
02/21 04:00   "picture"
02/21 05:00   "picture"
02/21 05:05   "servo s"
02/21 06:00   "picture"
02/21 07:00   "picture"
02/21 08:00   "picture"
02/21 09:00   "picture"
02/21 10:00   "picture"
02/22 01:00   "picture"
02/22 02:00   "picture"
02/22 03:00   "picture"
02/22 04:00   "picture"
02/22 05:00   "picture"
02/22 05:05   "servo s"
02/22 06:00   "picture"
02/22 07:00   "picture"
02/22 08:00   "picture"
02/22 09:00   "picture"
02/22 10:00   "picture"
02/23 01:00   "picture"
02/23 02:00   "picture"
02/23 03:00   "picture"
02/23 04:00   "picture"
02/23 05:00   "picture"
02/23 05:05   "servo s"
02/23 06:00   "picture"
02/23 07:00   "picture"
02/23 08:00   "picture"
02/23 09:00   "picture"
02/23 10:00   "picture"
02/24 01:00   "picture"
02/24 02:00   "picture"
02/24 03:00   "picture"
02/24 04:00   "picture"
02/24 05:00   "picture"
02/24 05:05   "servo s"
02/24 06:00   "picture"
02/24 07:00   "picture"
02/24 08:00   "picture"
02/24 09:00   "picture"
02/24 10:00   "picture"
02/25 01:00   "picture"
02/25 02:00   "picture"
02/25 03:00   "picture"
02/25 04:00   "picture"
02/25 05:00   "picture"
02/25 05:05   "servo s"
02/25 06:00   "picture"
02/25 07:00   "picture"
02/25 08:00   "picture"
02/25 09:00   "picture"
02/25 10:00   "picture"
02/26 01:00   "picture"
02/26 02:00   "picture"
02/26 03:00   "picture"
02/26 04:00   "picture"
02/26 05:00   "picture"
02/26 05:05   "servo s"
02/26 06:00   "picture"
02/26 07:00   "picture"
02/26 08:00   "picture"
02/26 09:00   "picture"
02/26 10:00   "picture"
02/27 01:00   "picture"
02/27 02:00   "picture"
02/27 03:00   "picture"
02/27 04:00   "picture"
02/27 05:00   "picture"
02/27 05:05   "servo s"
02/27 06:00   "picture"
02/27 07:00   "picture"
02/27 08:00   "picture"
02/27 09:00   "picture"
02/27 10:00   "picture"
02/28 01:00   "picture"
02/28 02:00   "picture"
02/28 03:00   "picture"
02/28 04:00   "picture"
02/28 05:00   "picture"
02/28 05:05   "servo s"
02/28 06:00   "picture"
02/28 07:00   "picture"
02/28 08:00   "picture"
02/28 09:00   "picture"
02/28 10:00   "picture"
03/01 05:00   "picture"
03/01 05:05   "servo s"
03/02 05:05   "servo s"
03/03 05:05   "servo s"
03/04 05:05   "servo s"
03/05 05:05   "servo s"
03/06 05:05   "servo s"
03/07 05:05   "servo s"
03/08 05:00   "picture"
03/08 05:05   "servo s"
03/09 05:05   "servo s"
03/10 05:05   "servo s"
03/11 05:05   "servo s"
03/12 05:05   "servo s"
03/13 05:05   "servo s"
03/14 05:05   "servo s"
03/15 05:00   "picture"
03/15 05:05   "servo s"
03/16 05:05   "servo s"
03/17 05:05   "servo s"
03/18 05:05   "servo s"
03/19 05:05   "servo s"
03/20 05:05   "servo s"
03/21 05:05   "servo s"
03/22 05:00   "picture"
03/22 05:05   "servo s"
03/23 05:05   "servo s"
03/24 05:05   "servo s"
03/25 05:05   "servo s"
03/26 05:05   "servo s"
03/27 05:05   "servo s"
03/28 05:05   "servo s"
03/29 05:00   "picture"
03/29 05:05   "servo s"
03/30 05:05   "servo s"
03/31 05:05   "servo s"
04/01 05:05   "servo s"
04/02 05:05   "servo s"
04/03 05:05   "servo s"
04/04 05:05   "servo s"
04/05 05:00   "picture"
04/05 05:05   "servo s"
04/06 05:05   "servo s"
04/07 05:05   "servo s"
04/08 05:05   "servo s"
04/09 05:05   "servo s"
04/10 05:05   "servo s"
04/11 05:05   "servo s"
04/12 05:00   "picture"
04/12 05:05   "servo s"
04/13 05:05   "servo s"
04/14 05:05   "servo s"
04/15 05:05   "servo s"
04/16 05:05   "servo s"
04/17 05:05   "servo s"
04/18 05:05   "servo s"
04/19 05:00   "picture"
04/19 05:05   "servo s"
04/20 05:05   "servo s"
04/21 05:05   "servo s"
04/22 05:05   "servo s"
04/23 05:05   "servo s"
04/24 05:05   "servo s"
04/25 05:05   "servo s"
04/26 05:00   "picture"
04/26 05:05   "servo s"
04/27 05:05   "servo s"
04/28 05:05   "servo s"
04/29 05:05   "servo s"
04/30 05:05   "servo s"
05/01 05:05   "servo s"
05/02 05:05   "servo s"
05/03 05:00   "picture"
05/03 05:05   "servo s"
05/04 05:05   "servo s"
05/05 05:05   "servo s"
05/06 05:05   "servo s"
05/07 05:05   "servo s"
05/08 05:05   "servo s"
05/09 05:05   "servo s"
05/10 05:00   "picture"
05/10 05:05   "servo s"
05/11 05:05   "servo s"
05/12 05:05   "servo s"
05/13 05:05   "servo s"
05/14 05:05   "servo s"
05/15 05:05   "servo s"
05/16 05:05   "servo s"
05/17 05:00   "picture"
05/17 05:05   "servo s"
05/18 05:05   "servo s"
05/19 05:05   "servo s"
05/20 05:05   "servo s"
05/21 05:05   "servo s"
05/22 05:05   "servo s"
05/23 05:05   "servo s"
05/24 05:00   "picture"
05/24 05:05   "servo s"
05/25 05:05   "servo s"
05/26 05:05   "servo s"
05/27 05:05   "servo s"
05/28 05:05   "servo s"
05/29 05:05   "servo s"
05/30 05:05   "servo s"
05/31 05:00   "picture"
05/31 05:05   "servo s"
06/01 05:05   "servo s"
06/02 05:05   "servo s"
06/03 05:05   "servo s"
06/04 05:05   "servo s"
06/05 05:05   "servo s"
06/06 05:05   "servo s"
06/07 05:00   "picture"
06/07 05:05   "servo s"
06/08 05:05   "servo s"
06/09 05:05   "servo s"
06/10 05:05   "servo s"
06/11 05:05   "servo s"
06/12 05:05   "servo s"
06/13 05:05   "servo s"
06/14 05:00   "picture"
06/14 05:05   "servo s"
06/15 05:05   "servo s"
06/16 05:05   "servo s"
06/17 05:05   "servo s"
06/18 05:05   "servo s"
06/19 05:05   "servo s"
06/20 05:05   "servo s"
06/21 05:00   "picture"
06/21 05:05   "servo s"
06/22 05:05   "servo s"
06/23 05:05   "servo s"
06/24 05:05   "servo s"
06/25 05:05   "servo s"
06/26 05:05   "servo s"
06/27 05:05   "servo s"
06/28 05:00   "picture"
06/28 05:05   "servo s"
06/29 05:05   "servo s"
06/30 05:05   "servo s"
07/01 05:05   "servo s"
07/02 05:05   "servo s"
07/03 05:05   "servo s"
07/04 05:05   "servo s"
07/05 05:00   "picture"
07/05 05:05   "servo s"
07/06 05:05   "servo s"
07/07 05:05   "servo s"
07/08 05:05   "servo s"
07/09 05:05   "servo s"
07/10 05:05   "servo s"
07/11 05:05   "servo s"
07/12 05:00   "picture"
07/12 05:05   "servo s"
07/13 05:05   "servo s"
07/14 05:05   "servo s"
07/15 05:05   "servo s"
07/16 05:05   "servo s"
07/17 05:05   "servo s"
07/18 05:05   "servo s"
07/19 05:00   "picture"
07/19 05:05   "servo s"
07/20 05:05   "servo s"
07/21 05:05   "servo s"
07/22 05:05   "servo s"
07/23 05:05   "servo s"
07/24 05:05   "servo s"
07/25 05:05   "servo s"
07/26 05:00   "picture"
07/26 05:05   "servo s"
07/27 05:05   "servo s"
07/28 05:05   "servo s"
07/29 05:05   "servo s"
07/30 05:05   "servo s"
07/31 05:05   "servo s"
08/01 05:05   "servo s"
08/02 05:00   "picture"
08/02 05:05   "servo s"
08/03 05:05   "servo s"
08/04 05:05   "servo s"
08/05 05:05   "servo s"
08/06 05:05   "servo s"
08/07 05:05   "servo s"
08/08 05:05   "servo s"
08/09 05:00   "picture"
08/09 05:05   "servo s"
08/10 05:05   "servo s"
08/11 05:05   "servo s"
08/12 05:05   "servo s"
08/13 05:05   "servo s"
08/14 05:05   "servo s"
08/15 05:05   "servo s"
08/16 05:00   "picture"
08/16 05:05   "servo s"
08/17 05:05   "servo s"
08/18 05:05   "servo s"
08/19 05:05   "servo s"
08/20 05:05   "servo s"
08/21 05:05   "servo s"
08/22 05:05   "servo s"
08/23 05:00   "picture"
08/23 05:05   "servo s"
08/24 05:05   "servo s"
08/25 05:05   "servo s"
08/26 05:05   "servo s"
08/27 05:05   "servo s"
08/28 05:05   "servo s"
08/29 05:05   "servo s"
08/30 05:00   "picture"
08/30 05:05   "servo s"
08/31 05:05   "servo s"
09/01 05:05   "servo s"
09/02 05:05   "servo s"
09/03 05:05   "servo s"
09/04 05:05   "servo s"
09/05 05:05   "servo s"
09/06 05:00   "picture"
09/06 05:05   "servo s"
09/07 05:05   "servo s"
09/08 05:05   "servo s"
09/09 05:05   "servo s"
09/10 05:05   "servo s"
09/11 05:05   "servo s"
09/12 05:05   "servo s"
09/13 05:00   "picture"
09/13 05:05   "servo s"
09/14 05:05   "servo s"
09/15 05:05   "servo s"
09/16 05:05   "servo s"
09/17 05:05   "servo s"
09/18 05:05   "servo s"
09/19 05:05   "servo s"
09/20 05:00   "picture"
09/20 05:05   "servo s"
09/21 05:00   "picture"
09/21 05:05   "servo s"
09/22 05:00   "picture"
09/22 05:05   "servo s"
09/23 05:00   "picture"
09/23 05:05   "servo s"
09/24 05:00   "picture"
09/24 05:05   "servo s"
09/25 05:00   "picture"
09/25 05:05   "servo s"
09/26 05:00   "picture"
09/26 05:05   "servo s"
09/27 05:00   "picture"
09/27 05:05   "servo s"
09/28 05:00   "picture"
09/28 05:05   "servo s"
09/29 05:00   "picture"
09/29 05:05   "servo s"
09/30 05:00   "picture"
09/30 05:05   "servo s"
10/01 05:00   "picture"
10/01 05:05   "servo s"
10/02 05:00   "picture"
10/02 05:05   "servo s"
10/03 05:00   "picture"
10/03 05:05   "servo s"
10/04 05:00   "picture"
10/04 05:05   "servo s"
10/05 05:00   "picture"
10/05 05:05   "servo s"
10/06 05:00   "picture"
10/06 05:05   "servo s"
10/07 05:00   "picture"
10/07 05:05   "servo s"
10/08 05:00   "picture"
10/08 05:05   "servo s"
10/09 05:00   "picture"
10/09 05:05   "servo s"
10/10 05:00   "picture"
10/10 05:05   "servo s"
10/11 05:00   "picture"
10/11 05:05   "servo s"
10/12 05:00   "picture"
10/12 05:05   "servo s"
10/13 05:00   "picture"
10/13 05:05   "servo s"
10/14 05:00   "picture"
10/14 05:05   "servo s"
10/15 05:00   "picture"
10/15 05:05   "servo s"
10/16 05:00   "picture"
10/16 05:05   "servo s"
10/17 05:00   "picture"
10/17 05:05   "servo s"
10/18 05:00   "picture"
10/18 05:05   "servo s"
10/19 05:00   "picture"
10/19 05:05   "servo s"
10/20 05:00   "picture"
10/20 05:05   "servo s"
10/21 05:00   "picture"
10/21 05:05   "servo s"
10/22 05:00   "picture"
10/22 05:05   "servo s"
10/23 05:00   "picture"
10/23 05:05   "servo s"
10/24 05:00   "picture"
10/24 05:05   "servo s"
10/25 05:00   "picture"
10/25 05:05   "servo s"
10/26 05:00   "picture"
10/26 05:05   "servo s"
10/27 05:00   "picture"
10/27 05:05   "servo s"
10/28 05:00   "picture"
10/28 05:05   "servo s"
10/29 05:00   "picture"
10/29 05:05   "servo s"
10/30 05:00   "picture"
10/30 05:05   "servo s"
10/31 05:00   "picture"
10/31 05:05   "servo s"
11/01 01:00   "picture"
11/01 02:00   "picture"
11/01 03:00   "picture"
11/01 04:00   "picture"
11/01 05:00   "picture"
11/01 05:05   "servo s"
11/01 06:00   "picture"
11/01 07:00   "picture"
11/01 08:00   "picture"
11/01 09:00   "picture"
11/01 10:00   "picture"
11/02 01:00   "picture"
11/02 02:00   "picture"
11/02 03:00   "picture"
11/02 04:00   "picture"
11/02 05:00   "picture"
11/02 05:05   "servo s"
11/02 06:00   "picture"
11/02 07:00   "picture"
11/02 08:00   "picture"
11/02 09:00   "picture"
11/02 10:00   "picture"
11/03 01:00   "picture"
11/03 02:00   "picture"
11/03 03:00   "picture"
11/03 04:00   "picture"
11/03 05:00   "picture"
11/03 05:05   "servo s"
11/03 06:00   "picture"
11/03 07:00   "picture"
11/03 08:00   "picture"
11/03 09:00   "picture"
11/03 10:00   "picture"
11/04 01:00   "picture"
11/04 02:00   "picture"
11/04 03:00   "picture"
11/04 04:00   "picture"
11/04 05:00   "picture"
11/04 05:05   "servo s"
11/04 06:00   "picture"
11/04 07:00   "picture"
11/04 08:00   "picture"
11/04 09:00   "picture"
11/04 10:00   "picture"
11/05 01:00   "picture"
11/05 02:00   "picture"
11/05 03:00   "picture"
11/05 04:00   "picture"
11/05 05:00   "picture"
11/05 05:05   "servo s"
11/05 06:00   "picture"
11/05 07:00   "picture"
11/05 08:00   "picture"
11/05 09:00   "picture"
11/05 10:00   "picture"
11/06 01:00   "picture"
11/06 02:00   "picture"
11/06 03:00   "picture"
11/06 04:00   "picture"
11/06 05:00   "picture"
11/06 05:05   "servo s"
11/06 06:00   "picture"
11/06 07:00   "picture"
11/06 08:00   "picture"
11/06 09:00   "picture"
11/06 10:00   "picture"
11/07 01:00   "picture"
11/07 02:00   "picture"
11/07 03:00   "picture"
11/07 04:00   "picture"
11/07 05:00   "picture"
11/07 05:05   "servo s"
11/07 06:00   "picture"
11/07 07:00   "picture"
11/07 08:00   "picture"
11/07 09:00   "picture"
11/07 10:00   "picture"
11/08 01:00   "picture"
11/08 02:00   "picture"
11/08 03:00   "picture"
11/08 04:00   "picture"
11/08 05:00   "picture"
11/08 05:05   "servo s"
11/08 06:00   "picture"
11/08 07:00   "picture"
11/08 08:00   "picture"
11/08 09:00   "picture"
11/08 10:00   "picture"
11/09 01:00   "picture"
11/09 02:00   "picture"
11/09 03:00   "picture"
11/09 04:00   "picture"
11/09 05:00   "picture"
11/09 05:05   "servo s"
11/09 06:00   "picture"
11/09 07:00   "picture"
11/09 08:00   "picture"
11/09 09:00   "picture"
11/09 10:00   "picture"
11/10 01:00   "picture"
11/10 02:00   "picture"
11/10 03:00   "picture"
11/10 04:00   "picture"
11/10 05:00   "picture"
11/10 05:05   "servo s"
11/10 06:00   "picture"
11/10 07:00   "picture"
11/10 08:00   "picture"
11/10 09:00   "picture"
11/10 10:00   "picture"
11/11 01:00   "picture"
11/11 02:00   "picture"
11/11 03:00   "picture"
11/11 04:00   "picture"
11/11 05:00   "picture"
11/11 05:05   "servo s"
11/11 06:00   "picture"
11/11 07:00   "picture"
11/11 08:00   "picture"
11/11 09:00   "picture"
11/11 10:00   "picture"
11/12 01:00   "picture"
11/12 02:00   "picture"
11/12 03:00   "picture"
11/12 04:00   "picture"
11/12 05:00   "picture"
11/12 05:05   "servo s"
11/12 06:00   "picture"
11/12 07:00   "picture"
11/12 08:00   "picture"
11/12 09:00   "picture"
11/12 10:00   "picture"
11/13 01:00   "picture"
11/13 02:00   "picture"
11/13 03:00   "picture"
11/13 04:00   "picture"
11/13 05:00   "picture"
11/13 05:05   "servo s"
11/13 06:00   "picture"
11/13 07:00   "picture"
11/13 08:00   "picture"
11/13 09:00   "picture"
11/13 10:00   "picture"
11/14 01:00   "picture"
11/14 02:00   "picture"
11/14 03:00   "picture"
11/14 04:00   "picture"
11/14 05:00   "picture"
11/14 05:05   "servo s"
11/14 06:00   "picture"
11/14 07:00   "picture"
11/14 08:00   "picture"
11/14 09:00   "picture"
11/14 10:00   "picture"
11/15 01:00   "picture"
11/15 02:00   "picture"
11/15 03:00   "picture"
11/15 04:00   "picture"
11/15 05:00   "picture"
11/15 05:05   "servo s"
11/15 06:00   "picture"
11/15 07:00   "picture"
11/15 08:00   "picture"
11/15 09:00   "picture"
11/15 10:00   "picture"
11/16 01:00   "picture"
11/16 02:00   "picture"
11/16 03:00   "picture"
11/16 04:00   "picture"
11/16 05:00   "picture"
11/16 05:05   "servo s"
11/16 06:00   "picture"
11/16 07:00   "picture"
11/16 08:00   "picture"
11/16 09:00   "picture"
11/16 10:00   "picture"
11/17 01:00   "picture"
11/17 02:00   "picture"
11/17 03:00   "picture"
11/17 04:00   "picture"
11/17 05:00   "picture"
11/17 05:05   "servo s"
11/17 06:00   "picture"
11/17 07:00   "picture"
11/17 08:00   "picture"
11/17 09:00   "picture"
11/17 10:00   "picture"
11/18 01:00   "picture"
11/18 02:00   "picture"
11/18 03:00   "picture"
11/18 04:00   "picture"
11/18 05:00   "picture"
11/18 05:05   "servo s"
11/18 06:00   "picture"
11/18 07:00   "picture"
11/18 08:00   "picture"
11/18 09:00   "picture"
11/18 10:00   "picture"
11/19 01:00   "picture"
11/19 02:00   "picture"
11/19 03:00   "picture"
11/19 04:00   "picture"
11/19 05:00   "picture"
11/19 05:05   "servo s"
11/19 06:00   "picture"
11/19 07:00   "picture"
11/19 08:00   "picture"
11/19 09:00   "picture"
11/19 10:00   "picture"
11/20 01:00   "picture"
11/20 02:00   "picture"
11/20 03:00   "picture"
11/20 04:00   "picture"
11/20 05:00   "picture"
11/20 05:05   "servo s"
11/20 06:00   "picture"
11/20 07:00   "picture"
11/20 08:00   "picture"
11/20 09:00   "picture"
11/20 10:00   "picture"
11/21 01:00   "picture"
11/21 02:00   "picture"
11/21 03:00   "picture"
11/21 04:00   "picture"
11/21 05:00   "picture"
11/21 05:05   "servo s"
11/21 06:00   "picture"
11/21 07:00   "picture"
11/21 08:00   "picture"
11/21 09:00   "picture"
11/21 10:00   "picture"
11/22 01:00   "picture"
11/22 02:00   "picture"
11/22 03:00   "picture"
11/22 04:00   "picture"
11/22 05:00   "picture"
11/22 05:05   "servo s"
11/22 06:00   "picture"
11/22 07:00   "picture"
11/22 08:00   "picture"
11/22 09:00   "picture"
11/22 10:00   "picture"
11/23 01:00   "picture"
11/23 02:00   "picture"
11/23 03:00   "picture"
11/23 04:00   "picture"
11/23 05:00   "picture"
11/23 05:05   "servo s"
11/23 06:00   "picture"
11/23 07:00   "picture"
11/23 08:00   "picture"
11/23 09:00   "picture"
11/23 10:00   "picture"
11/24 01:00   "picture"
11/24 02:00   "picture"
11/24 03:00   "picture"
11/24 04:00   "picture"
11/24 05:00   "picture"
11/24 05:05   "servo s"
11/24 06:00   "picture"
11/24 07:00   "picture"
11/24 08:00   "picture"
11/24 09:00   "picture"
11/24 10:00   "picture"
11/25 01:00   "picture"
11/25 02:00   "picture"
11/25 03:00   "picture"
11/25 04:00   "picture"
11/25 05:00   "picture"
11/25 05:05   "servo s"
11/25 06:00   "picture"
11/25 07:00   "picture"
11/25 08:00   "picture"
11/25 09:00   "picture"
11/25 10:00   "picture"
11/26 01:00   "picture"
11/26 02:00   "picture"
11/26 03:00   "picture"
11/26 04:00   "picture"
11/26 05:00   "picture"
11/26 05:05   "servo s"
11/26 06:00   "picture"
11/26 07:00   "picture"
11/26 08:00   "picture"
11/26 09:00   "picture"
11/26 10:00   "picture"
11/27 01:00   "picture"
11/27 02:00   "picture"
11/27 03:00   "picture"
11/27 04:00   "picture"
11/27 05:00   "picture"
11/27 05:05   "servo s"
11/27 06:00   "picture"
11/27 07:00   "picture"
11/27 08:00   "picture"
11/27 09:00   "picture"
11/27 10:00   "picture"
11/28 01:00   "picture"
11/28 02:00   "picture"
11/28 03:00   "picture"
11/28 04:00   "picture"
11/28 05:00   "picture"
11/28 05:05   "servo s"
11/28 06:00   "picture"
11/28 07:00   "picture"
11/28 08:00   "picture"
11/28 09:00   "picture"
11/28 10:00   "picture"
11/29 01:00   "picture"
11/29 02:00   "picture"
11/29 03:00   "picture"
11/29 04:00   "picture"
11/29 05:00   "picture"
11/29 05:05   "servo s"
11/29 06:00   "picture"
11/29 07:00   "picture"
11/29 08:00   "picture"
11/29 09:00   "picture"
11/29 10:00   "picture"
11/30 01:00   "picture"
11/30 02:00   "picture"
11/30 03:00   "picture"
11/30 04:00   "picture"
11/30 05:00   "picture"
11/30 05:05   "servo s"
11/30 06:00   "picture"
11/30 07:00   "picture"
11/30 08:00   "picture"
11/30 09:00   "picture"
11/30 10:00   "picture"
12/01 01:00   "picture"
12/01 02:00   "picture"
12/01 03:00   "picture"
12/01 04:00   "picture"
12/01 05:00   "picture"
12/01 05:05   "servo s"
12/01 06:00   "picture"
12/01 07:00   "picture"
12/01 08:00   "picture"
12/01 09:00   "picture"
12/01 10:00   "picture"
12/02 01:00   "picture"
12/02 02:00   "picture"
12/02 03:00   "picture"
12/02 04:00   "picture"
12/02 05:00   "picture"
12/02 05:05   "servo s"
12/02 06:00   "picture"
12/02 07:00   "picture"
12/02 08:00   "picture"
12/02 09:00   "picture"
12/02 10:00   "picture"
12/03 01:00   "picture"
12/03 02:00   "picture"
12/03 03:00   "picture"
12/03 04:00   "picture"
12/03 05:00   "picture"
12/03 05:05   "servo s"
12/03 06:00   "picture"
12/03 07:00   "picture"
12/03 08:00   "picture"
12/03 09:00   "picture"
12/03 10:00   "picture"
12/04 01:00   "picture"
12/04 02:00   "picture"
12/04 03:00   "picture"
12/04 04:00   "picture"
12/04 05:00   "picture"
12/04 05:05   "servo s"
12/04 06:00   "picture"
12/04 07:00   "picture"
12/04 08:00   "picture"
12/04 09:00   "picture"
12/04 10:00   "picture"
12/05 01:00   "picture"
12/05 02:00   "picture"
12/05 03:00   "picture"
12/05 04:00   "picture"
12/05 05:00   "picture"
12/05 05:05   "servo s"
12/05 06:00   "picture"
12/05 07:00   "picture"
12/05 08:00   "picture"
12/05 09:00   "picture"
12/05 10:00   "picture"
12/06 01:00   "picture"
12/06 02:00   "picture"
12/06 03:00   "picture"
12/06 04:00   "picture"
12/06 05:00   "picture"
12/06 05:05   "servo s"
12/06 06:00   "picture"
12/06 07:00   "picture"
12/06 08:00   "picture"
12/06 09:00   "picture"
12/06 10:00   "picture"
12/07 01:00   "picture"
12/07 02:00   "picture"
12/07 03:00   "picture"
12/07 04:00   "picture"
12/07 05:00   "picture"
12/07 05:05   "servo s"
12/07 06:00   "picture"
12/07 07:00   "picture"
12/07 08:00   "picture"
12/07 09:00   "picture"
12/07 10:00   "picture"
12/08 01:00   "picture"
12/08 02:00   "picture"
12/08 03:00   "picture"
12/08 04:00   "picture"
12/08 05:00   "picture"
12/08 05:05   "servo s"
12/08 06:00   "picture"
12/08 07:00   "picture"
12/08 08:00   "picture"
12/08 09:00   "picture"
12/08 10:00   "picture"
12/09 01:00   "picture"
12/09 02:00   "picture"
12/09 03:00   "picture"
12/09 04:00   "picture"
12/09 05:00   "picture"
12/09 05:05   "servo s"
12/09 06:00   "picture"
12/09 07:00   "picture"
12/09 08:00   "picture"
12/09 09:00   "picture"
12/09 10:00   "picture"
12/10 01:00   "picture"
12/10 02:00   "picture"
12/10 03:00   "picture"
12/10 04:00   "picture"
12/10 05:00   "picture"
12/10 05:05   "servo s"
12/10 06:00   "picture"
12/10 07:00   "picture"
12/10 08:00   "picture"
12/10 09:00   "picture"
12/10 10:00   "picture"
12/11 01:00   "picture"
12/11 02:00   "picture"
12/11 03:00   "picture"
12/11 04:00   "picture"
12/11 05:00   "picture"
12/11 05:05   "servo s"
12/11 06:00   "picture"
12/11 07:00   "picture"
12/11 08:00   "picture"
12/11 09:00   "picture"
12/11 10:00   "picture"
12/12 01:00   "picture"
12/12 02:00   "picture"
12/12 03:00   "picture"
12/12 04:00   "picture"
12/12 05:00   "picture"
12/12 05:05   "servo s"
12/12 06:00   "picture"
12/12 07:00   "picture"
12/12 08:00   "picture"
12/12 09:00   "picture"
12/12 10:00   "picture"
12/13 01:00   "picture"
12/13 02:00   "picture"
12/13 03:00   "picture"
12/13 04:00   "picture"
12/13 05:00   "picture"
12/13 05:05   "servo s"
12/13 06:00   "picture"
12/13 07:00   "picture"
12/13 08:00   "picture"
12/13 09:00   "picture"
12/13 10:00   "picture"
12/14 01:00   "picture"
12/14 02:00   "picture"
12/14 03:00   "picture"
12/14 04:00   "picture"
12/14 05:00   "picture"
12/14 05:05   "servo s"
12/14 06:00   "picture"
12/14 07:00   "picture"
12/14 08:00   "picture"
12/14 09:00   "picture"
12/14 10:00   "picture"
12/15 01:00   "picture"
12/15 02:00   "picture"
12/15 03:00   "picture"
12/15 04:00   "picture"
12/15 05:00   "picture"
12/15 05:05   "servo s"
12/15 06:00   "picture"
12/15 07:00   "picture"
12/15 08:00   "picture"
12/15 09:00   "picture"
12/15 10:00   "picture"
12/16 01:00   "picture"
12/16 02:00   "picture"
12/16 03:00   "picture"
12/16 04:00   "picture"
12/16 05:00   "picture"
12/16 05:05   "servo s"
12/16 06:00   "picture"
12/16 07:00   "picture"
12/16 08:00   "picture"
12/16 09:00   "picture"
12/16 10:00   "picture"
12/17 01:00   "picture"
12/17 02:00   "picture"
12/17 03:00   "picture"
12/17 04:00   "picture"
12/17 05:00   "picture"
12/17 05:05   "servo s"
12/17 06:00   "picture"
12/17 07:00   "picture"
12/17 08:00   "picture"
12/17 09:00   "picture"
12/17 10:00   "picture"
12/18 01:00   "picture"
12/18 02:00   "picture"
12/18 03:00   "picture"
12/18 04:00   "picture"
12/18 05:00   "picture"
12/18 05:05   "servo s"
12/18 06:00   "picture"
12/18 07:00   "picture"
12/18 08:00   "picture"
12/18 09:00   "picture"
12/18 10:00   "picture"
12/19 01:00   "picture"
12/19 02:00   "picture"
12/19 03:00   "picture"
12/19 04:00   "picture"
12/19 05:00   "picture"
12/19 05:05   "servo s"
12/19 06:00   "picture"
12/19 07:00   "picture"
12/19 08:00   "picture"
12/19 09:00   "picture"
12/19 10:00   "picture"
12/20 01:00   "picture"
12/20 02:00   "picture"
12/20 03:00   "picture"
12/20 04:00   "picture"
12/20 05:00   "picture"
12/20 05:05   "servo s"
12/20 06:00   "picture"
12/20 07:00   "picture"
12/20 08:00   "picture"
12/20 09:00   "picture"
12/20 10:00   "picture"
12/21 01:00   "picture"
12/21 02:00   "picture"
12/21 03:00   "picture"
12/21 04:00   "picture"
12/21 05:00   "picture"
12/21 05:05   "servo s"
12/21 06:00   "picture"
12/21 07:00   "picture"
12/21 08:00   "picture"
12/21 09:00   "picture"
12/21 10:00   "picture"
12/22 01:00   "picture"
12/22 02:00   "picture"
12/22 03:00   "picture"
12/22 04:00   "picture"
12/22 05:00   "picture"
12/22 05:05   "servo s"
12/22 06:00   "picture"
12/22 07:00   "picture"
12/22 08:00   "picture"
12/22 09:00   "picture"
12/22 10:00   "picture"
12/23 01:00   "picture"
12/23 02:00   "picture"
12/23 03:00   "picture"
12/23 04:00   "picture"
12/23 05:00   "picture"
12/23 05:05   "servo s"
12/23 06:00   "picture"
12/23 07:00   "picture"
12/23 08:00   "picture"
12/23 09:00   "picture"
12/23 10:00   "picture"
12/24 01:00   "picture"
12/24 02:00   "picture"
12/24 03:00   "picture"
12/24 04:00   "picture"
12/24 05:00   "picture"
12/24 05:05   "servo s"
12/24 06:00   "picture"
12/24 07:00   "picture"
12/24 08:00   "picture"
12/24 09:00   "picture"
12/24 10:00   "picture"
12/25 01:00   "picture"
12/25 02:00   "picture"
12/25 03:00   "picture"
12/25 04:00   "picture"
12/25 05:00   "picture"
12/25 05:05   "servo s"
12/25 06:00   "picture"
12/25 07:00   "picture"
12/25 08:00   "picture"
12/25 09:00   "picture"
12/25 10:00   "picture"
12/26 01:00   "picture"
12/26 02:00   "picture"
12/26 03:00   "picture"
12/26 04:00   "picture"
12/26 05:00   "picture"
12/26 05:05   "servo s"
12/26 06:00   "picture"
12/26 07:00   "picture"
12/26 08:00   "picture"
12/26 09:00   "picture"
12/26 10:00   "picture"
12/27 01:00   "picture"
12/27 02:00   "picture"
12/27 03:00   "picture"
12/27 04:00   "picture"
12/27 05:00   "picture"
12/27 05:05   "servo s"
12/27 06:00   "picture"
12/27 07:00   "picture"
12/27 08:00   "picture"
12/27 09:00   "picture"
12/27 10:00   "picture"
12/28 01:00   "picture"
12/28 02:00   "picture"
12/28 03:00   "picture"
12/28 04:00   "picture"
12/28 05:00   "picture"
12/28 05:05   "servo s"
12/28 06:00   "picture"
12/28 07:00   "picture"
12/28 08:00   "picture"
12/28 09:00   "picture"
12/28 10:00   "picture"
12/29 01:00   "picture"
12/29 02:00   "picture"
12/29 03:00   "picture"
12/29 04:00   "picture"
12/29 05:00   "picture"
12/29 05:05   "servo s"
12/29 06:00   "picture"
12/29 07:00   "picture"
12/29 08:00   "picture"
12/29 09:00   "picture"
12/29 10:00   "picture"
12/30 01:00   "picture"
12/30 02:00   "picture"
12/30 03:00   "picture"
12/30 04:00   "picture"
12/30 05:00   "picture"
12/30 05:05   "servo s"
12/30 06:00   "picture"
12/30 07:00   "picture"
12/30 08:00   "picture"
12/30 09:00   "picture"
12/30 10:00   "picture"
12/31 01:00   "picture"
12/31 02:00   "picture"
12/31 03:00   "picture"
12/31 04:00   "picture"
12/31 05:00   "picture"
12/31 05:05   "servo s"
12/31 06:00   "picture"
12/31 07:00   "picture"
12/31 08:00   "picture"
12/31 09:00   "picture"
12/31 10:00   "picture"

# List of all times for events
[event a ** ** 05 05 "servo s"]
   01/01 05:05
   01/02 05:05
   01/03 05:05
   01/04 05:05
   01/05 05:05
   01/06 05:05
   01/07 05:05
   01/08 05:05
   01/09 05:05
   01/10 05:05
   01/11 05:05
   01/12 05:05
   01/13 05:05
   01/14 05:05
   01/15 05:05
   01/16 05:05
   01/17 05:05
   01/18 05:05
   01/19 05:05
   01/20 05:05
   01/21 05:05
   01/22 05:05
   01/23 05:05
   01/24 05:05
   01/25 05:05
   01/26 05:05
   01/27 05:05
   01/28 05:05
   01/29 05:05
   01/30 05:05
   01/31 05:05
   02/01 05:05
   02/02 05:05
   02/03 05:05
   02/04 05:05
   02/05 05:05
   02/06 05:05
   02/07 05:05
   02/08 05:05
   02/09 05:05
   02/10 05:05
   02/11 05:05
   02/12 05:05
   02/13 05:05
   02/14 05:05
   02/15 05:05
   02/16 05:05
   02/17 05:05
   02/18 05:05
   02/19 05:05
   02/20 05:05
   02/21 05:05
   02/22 05:05
   02/23 05:05
   02/24 05:05
   02/25 05:05
   02/26 05:05
   02/27 05:05
   02/28 05:05
   03/01 05:05
   03/02 05:05
   03/03 05:05
   03/04 05:05
   03/05 05:05
   03/06 05:05
   03/07 05:05
   03/08 05:05
   03/09 05:05
   03/10 05:05
   03/11 05:05
   03/12 05:05
   03/13 05:05
   03/14 05:05
   03/15 05:05
   03/16 05:05
   03/17 05:05
   03/18 05:05
   03/19 05:05
   03/20 05:05
   03/21 05:05
   03/22 05:05
   03/23 05:05
   03/24 05:05
   03/25 05:05
   03/26 05:05
   03/27 05:05
   03/28 05:05
   03/29 05:05
   03/30 05:05
   03/31 05:05
   04/01 05:05
   04/02 05:05
   04/03 05:05
   04/04 05:05
   04/05 05:05
   04/06 05:05
   04/07 05:05
   04/08 05:05
   04/09 05:05
   04/10 05:05
   04/11 05:05
   04/12 05:05
   04/13 05:05
   04/14 05:05
   04/15 05:05
   04/16 05:05
   04/17 05:05
   04/18 05:05
   04/19 05:05
   04/20 05:05
   04/21 05:05
   04/22 05:05
   04/23 05:05
   04/24 05:05
   04/25 05:05
   04/26 05:05
   04/27 05:05
   04/28 05:05
   04/29 05:05
   04/30 05:05
   05/01 05:05
   05/02 05:05
   05/03 05:05
   05/04 05:05
   05/05 05:05
   05/06 05:05
   05/07 05:05
   05/08 05:05
   05/09 05:05
   05/10 05:05
   05/11 05:05
   05/12 05:05
   05/13 05:05
   05/14 05:05
   05/15 05:05
   05/16 05:05
   05/17 05:05
   05/18 05:05
   05/19 05:05
   05/20 05:05
   05/21 05:05
   05/22 05:05
   05/23 05:05
   05/24 05:05
   05/25 05:05
   05/26 05:05
   05/27 05:05
   05/28 05:05
   05/29 05:05
   05/30 05:05
   05/31 05:05
   06/01 05:05
   06/02 05:05
   06/03 05:05
   06/04 05:05
   06/05 05:05
   06/06 05:05
   06/07 05:05
   06/08 05:05
   06/09 05:05
   06/10 05:05
   06/11 05:05
   06/12 05:05
   06/13 05:05
   06/14 05:05
   06/15 05:05
   06/16 05:05
   06/17 05:05
   06/18 05:05
   06/19 05:05
   06/20 05:05
   06/21 05:05
   06/22 05:05
   06/23 05:05
   06/24 05:05
   06/25 05:05
   06/26 05:05
   06/27 05:05
   06/28 05:05
   06/29 05:05
   06/30 05:05
   07/01 05:05
   07/02 05:05
   07/03 05:05
   07/04 05:05
   07/05 05:05
   07/06 05:05
   07/07 05:05
   07/08 05:05
   07/09 05:05
   07/10 05:05
   07/11 05:05
   07/12 05:05
   07/13 05:05
   07/14 05:05
   07/15 05:05
   07/16 05:05
   07/17 05:05
   07/18 05:05
   07/19 05:05
   07/20 05:05
   07/21 05:05
   07/22 05:05
   07/23 05:05
   07/24 05:05
   07/25 05:05
   07/26 05:05
   07/27 05:05
   07/28 05:05
   07/29 05:05
   07/30 05:05
   07/31 05:05
   08/01 05:05
   08/02 05:05
   08/03 05:05
   08/04 05:05
   08/05 05:05
   08/06 05:05
   08/07 05:05
   08/08 05:05
   08/09 05:05
   08/10 05:05
   08/11 05:05
   08/12 05:05
   08/13 05:05
   08/14 05:05
   08/15 05:05
   08/16 05:05
   08/17 05:05
   08/18 05:05
   08/19 05:05
   08/20 05:05
   08/21 05:05
   08/22 05:05
   08/23 05:05
   08/24 05:05
   08/25 05:05
   08/26 05:05
   08/27 05:05
   08/28 05:05
   08/29 05:05
   08/30 05:05
   08/31 05:05
   09/01 05:05
   09/02 05:05
   09/03 05:05
   09/04 05:05
   09/05 05:05
   09/06 05:05
   09/07 05:05
   09/08 05:05
   09/09 05:05
   09/10 05:05
   09/11 05:05
   09/12 05:05
   09/13 05:05
   09/14 05:05
   09/15 05:05
   09/16 05:05
   09/17 05:05
   09/18 05:05
   09/19 05:05
   09/20 05:05
   09/21 05:05
   09/22 05:05
   09/23 05:05
   09/24 05:05
   09/25 05:05
   09/26 05:05
   09/27 05:05
   09/28 05:05
   09/29 05:05
   09/30 05:05
   10/01 05:05
   10/02 05:05
   10/03 05:05
   10/04 05:05
   10/05 05:05
   10/06 05:05
   10/07 05:05
   10/08 05:05
   10/09 05:05
   10/10 05:05
   10/11 05:05
   10/12 05:05
   10/13 05:05
   10/14 05:05
   10/15 05:05
   10/16 05:05
   10/17 05:05
   10/18 05:05
   10/19 05:05
   10/20 05:05
   10/21 05:05
   10/22 05:05
   10/23 05:05
   10/24 05:05
   10/25 05:05
   10/26 05:05
   10/27 05:05
   10/28 05:05
   10/29 05:05
   10/30 05:05
   10/31 05:05
   11/01 05:05
   11/02 05:05
   11/03 05:05
   11/04 05:05
   11/05 05:05
   11/06 05:05
   11/07 05:05
   11/08 05:05
   11/09 05:05
   11/10 05:05
   11/11 05:05
   11/12 05:05
   11/13 05:05
   11/14 05:05
   11/15 05:05
   11/16 05:05
   11/17 05:05
   11/18 05:05
   11/19 05:05
   11/20 05:05
   11/21 05:05
   11/22 05:05
   11/23 05:05
   11/24 05:05
   11/25 05:05
   11/26 05:05
   11/27 05:05
   11/28 05:05
   11/29 05:05
   11/30 05:05
   12/01 05:05
   12/02 05:05
   12/03 05:05
   12/04 05:05
   12/05 05:05
   12/06 05:05
   12/07 05:05
   12/08 05:05
   12/09 05:05
   12/10 05:05
   12/11 05:05
   12/12 05:05
   12/13 05:05
   12/14 05:05
   12/15 05:05
   12/16 05:05
   12/17 05:05
   12/18 05:05
   12/19 05:05
   12/20 05:05
   12/21 05:05
   12/22 05:05
   12/23 05:05
   12/24 05:05
   12/25 05:05
   12/26 05:05
   12/27 05:05
   12/28 05:05
   12/29 05:05
   12/30 05:05
   12/31 05:05
   sub-Total Events = 365
[event a 01 ** 01 00 "picture"]
   01/01 01:00
   01/02 01:00
   01/03 01:00
   01/04 01:00
   01/05 01:00
   01/06 01:00
   01/07 01:00
   01/08 01:00
   01/09 01:00
   01/10 01:00
   01/11 01:00
   01/12 01:00
   01/13 01:00
   01/14 01:00
   01/15 01:00
   01/16 01:00
   01/17 01:00
   01/18 01:00
   01/19 01:00
   01/20 01:00
   01/21 01:00
   01/22 01:00
   01/23 01:00
   01/24 01:00
   01/25 01:00
   01/26 01:00
   01/27 01:00
   01/28 01:00
   01/29 01:00
   01/30 01:00
   01/31 01:00
   sub-Total Events = 31
[event a 01 ** 02 00 "picture"]
   01/01 02:00
   01/02 02:00
   01/03 02:00
   01/04 02:00
   01/05 02:00
   01/06 02:00
   01/07 02:00
   01/08 02:00
   01/09 02:00
   01/10 02:00
   01/11 02:00
   01/12 02:00
   01/13 02:00
   01/14 02:00
   01/15 02:00
   01/16 02:00
   01/17 02:00
   01/18 02:00
   01/19 02:00
   01/20 02:00
   01/21 02:00
   01/22 02:00
   01/23 02:00
   01/24 02:00
   01/25 02:00
   01/26 02:00
   01/27 02:00
   01/28 02:00
   01/29 02:00
   01/30 02:00
   01/31 02:00
   sub-Total Events = 31
[event a 01 ** 03 00 "picture"]
   01/01 03:00
   01/02 03:00
   01/03 03:00
   01/04 03:00
   01/05 03:00
   01/06 03:00
   01/07 03:00
   01/08 03:00
   01/09 03:00
   01/10 03:00
   01/11 03:00
   01/12 03:00
   01/13 03:00
   01/14 03:00
   01/15 03:00
   01/16 03:00
   01/17 03:00
   01/18 03:00
   01/19 03:00
   01/20 03:00
   01/21 03:00
   01/22 03:00
   01/23 03:00
   01/24 03:00
   01/25 03:00
   01/26 03:00
   01/27 03:00
   01/28 03:00
   01/29 03:00
   01/30 03:00
   01/31 03:00
   sub-Total Events = 31
[event a 01 ** 04 00 "picture"]
   01/01 04:00
   01/02 04:00
   01/03 04:00
   01/04 04:00
   01/05 04:00
   01/06 04:00
   01/07 04:00
   01/08 04:00
   01/09 04:00
   01/10 04:00
   01/11 04:00
   01/12 04:00
   01/13 04:00
   01/14 04:00
   01/15 04:00
   01/16 04:00
   01/17 04:00
   01/18 04:00
   01/19 04:00
   01/20 04:00
   01/21 04:00
   01/22 04:00
   01/23 04:00
   01/24 04:00
   01/25 04:00
   01/26 04:00
   01/27 04:00
   01/28 04:00
   01/29 04:00
   01/30 04:00
   01/31 04:00
   sub-Total Events = 31
[event a 01 ** 05 00 "picture"]
   01/01 05:00
   01/02 05:00
   01/03 05:00
   01/04 05:00
   01/05 05:00
   01/06 05:00
   01/07 05:00
   01/08 05:00
   01/09 05:00
   01/10 05:00
   01/11 05:00
   01/12 05:00
   01/13 05:00
   01/14 05:00
   01/15 05:00
   01/16 05:00
   01/17 05:00
   01/18 05:00
   01/19 05:00
   01/20 05:00
   01/21 05:00
   01/22 05:00
   01/23 05:00
   01/24 05:00
   01/25 05:00
   01/26 05:00
   01/27 05:00
   01/28 05:00
   01/29 05:00
   01/30 05:00
   01/31 05:00
   sub-Total Events = 31
[event a 01 ** 06 00 "picture"]
   01/01 06:00
   01/02 06:00
   01/03 06:00
   01/04 06:00
   01/05 06:00
   01/06 06:00
   01/07 06:00
   01/08 06:00
   01/09 06:00
   01/10 06:00
   01/11 06:00
   01/12 06:00
   01/13 06:00
   01/14 06:00
   01/15 06:00
   01/16 06:00
   01/17 06:00
   01/18 06:00
   01/19 06:00
   01/20 06:00
   01/21 06:00
   01/22 06:00
   01/23 06:00
   01/24 06:00
   01/25 06:00
   01/26 06:00
   01/27 06:00
   01/28 06:00
   01/29 06:00
   01/30 06:00
   01/31 06:00
   sub-Total Events = 31
[event a 01 ** 07 00 "picture"]
   01/01 07:00
   01/02 07:00
   01/03 07:00
   01/04 07:00
   01/05 07:00
   01/06 07:00
   01/07 07:00
   01/08 07:00
   01/09 07:00
   01/10 07:00
   01/11 07:00
   01/12 07:00
   01/13 07:00
   01/14 07:00
   01/15 07:00
   01/16 07:00
   01/17 07:00
   01/18 07:00
   01/19 07:00
   01/20 07:00
   01/21 07:00
   01/22 07:00
   01/23 07:00
   01/24 07:00
   01/25 07:00
   01/26 07:00
   01/27 07:00
   01/28 07:00
   01/29 07:00
   01/30 07:00
   01/31 07:00
   sub-Total Events = 31
[event a 01 ** 08 00 "picture"]
   01/01 08:00
   01/02 08:00
   01/03 08:00
   01/04 08:00
   01/05 08:00
   01/06 08:00
   01/07 08:00
   01/08 08:00
   01/09 08:00
   01/10 08:00
   01/11 08:00
   01/12 08:00
   01/13 08:00
   01/14 08:00
   01/15 08:00
   01/16 08:00
   01/17 08:00
   01/18 08:00
   01/19 08:00
   01/20 08:00
   01/21 08:00
   01/22 08:00
   01/23 08:00
   01/24 08:00
   01/25 08:00
   01/26 08:00
   01/27 08:00
   01/28 08:00
   01/29 08:00
   01/30 08:00
   01/31 08:00
   sub-Total Events = 31
[event a 01 ** 09 00 "picture"]
   01/01 09:00
   01/02 09:00
   01/03 09:00
   01/04 09:00
   01/05 09:00
   01/06 09:00
   01/07 09:00
   01/08 09:00
   01/09 09:00
   01/10 09:00
   01/11 09:00
   01/12 09:00
   01/13 09:00
   01/14 09:00
   01/15 09:00
   01/16 09:00
   01/17 09:00
   01/18 09:00
   01/19 09:00
   01/20 09:00
   01/21 09:00
   01/22 09:00
   01/23 09:00
   01/24 09:00
   01/25 09:00
   01/26 09:00
   01/27 09:00
   01/28 09:00
   01/29 09:00
   01/30 09:00
   01/31 09:00
   sub-Total Events = 31
[event a 01 ** 10 00 "picture"]
   01/01 10:00
   01/02 10:00
   01/03 10:00
   01/04 10:00
   01/05 10:00
   01/06 10:00
   01/07 10:00
   01/08 10:00
   01/09 10:00
   01/10 10:00
   01/11 10:00
   01/12 10:00
   01/13 10:00
   01/14 10:00
   01/15 10:00
   01/16 10:00
   01/17 10:00
   01/18 10:00
   01/19 10:00
   01/20 10:00
   01/21 10:00
   01/22 10:00
   01/23 10:00
   01/24 10:00
   01/25 10:00
   01/26 10:00
   01/27 10:00
   01/28 10:00
   01/29 10:00
   01/30 10:00
   01/31 10:00
   sub-Total Events = 31
[event a 02 ** 01 00 "picture"]
   02/01 01:00
   02/02 01:00
   02/03 01:00
   02/04 01:00
   02/05 01:00
   02/06 01:00
   02/07 01:00
   02/08 01:00
   02/09 01:00
   02/10 01:00
   02/11 01:00
   02/12 01:00
   02/13 01:00
   02/14 01:00
   02/15 01:00
   02/16 01:00
   02/17 01:00
   02/18 01:00
   02/19 01:00
   02/20 01:00
   02/21 01:00
   02/22 01:00
   02/23 01:00
   02/24 01:00
   02/25 01:00
   02/26 01:00
   02/27 01:00
   02/28 01:00
   sub-Total Events = 28
[event a 02 ** 02 00 "picture"]
   02/01 02:00
   02/02 02:00
   02/03 02:00
   02/04 02:00
   02/05 02:00
   02/06 02:00
   02/07 02:00
   02/08 02:00
   02/09 02:00
   02/10 02:00
   02/11 02:00
   02/12 02:00
   02/13 02:00
   02/14 02:00
   02/15 02:00
   02/16 02:00
   02/17 02:00
   02/18 02:00
   02/19 02:00
   02/20 02:00
   02/21 02:00
   02/22 02:00
   02/23 02:00
   02/24 02:00
   02/25 02:00
   02/26 02:00
   02/27 02:00
   02/28 02:00
   sub-Total Events = 28
[event a 02 ** 03 00 "picture"]
   02/01 03:00
   02/02 03:00
   02/03 03:00
   02/04 03:00
   02/05 03:00
   02/06 03:00
   02/07 03:00
   02/08 03:00
   02/09 03:00
   02/10 03:00
   02/11 03:00
   02/12 03:00
   02/13 03:00
   02/14 03:00
   02/15 03:00
   02/16 03:00
   02/17 03:00
   02/18 03:00
   02/19 03:00
   02/20 03:00
   02/21 03:00
   02/22 03:00
   02/23 03:00
   02/24 03:00
   02/25 03:00
   02/26 03:00
   02/27 03:00
   02/28 03:00
   sub-Total Events = 28
[event a 02 ** 04 00 "picture"]
   02/01 04:00
   02/02 04:00
   02/03 04:00
   02/04 04:00
   02/05 04:00
   02/06 04:00
   02/07 04:00
   02/08 04:00
   02/09 04:00
   02/10 04:00
   02/11 04:00
   02/12 04:00
   02/13 04:00
   02/14 04:00
   02/15 04:00
   02/16 04:00
   02/17 04:00
   02/18 04:00
   02/19 04:00
   02/20 04:00
   02/21 04:00
   02/22 04:00
   02/23 04:00
   02/24 04:00
   02/25 04:00
   02/26 04:00
   02/27 04:00
   02/28 04:00
   sub-Total Events = 28
[event a 02 ** 05 00 "picture"]
   02/01 05:00
   02/02 05:00
   02/03 05:00
   02/04 05:00
   02/05 05:00
   02/06 05:00
   02/07 05:00
   02/08 05:00
   02/09 05:00
   02/10 05:00
   02/11 05:00
   02/12 05:00
   02/13 05:00
   02/14 05:00
   02/15 05:00
   02/16 05:00
   02/17 05:00
   02/18 05:00
   02/19 05:00
   02/20 05:00
   02/21 05:00
   02/22 05:00
   02/23 05:00
   02/24 05:00
   02/25 05:00
   02/26 05:00
   02/27 05:00
   02/28 05:00
   sub-Total Events = 28
[event a 02 ** 06 00 "picture"]
   02/01 06:00
   02/02 06:00
   02/03 06:00
   02/04 06:00
   02/05 06:00
   02/06 06:00
   02/07 06:00
   02/08 06:00
   02/09 06:00
   02/10 06:00
   02/11 06:00
   02/12 06:00
   02/13 06:00
   02/14 06:00
   02/15 06:00
   02/16 06:00
   02/17 06:00
   02/18 06:00
   02/19 06:00
   02/20 06:00
   02/21 06:00
   02/22 06:00
   02/23 06:00
   02/24 06:00
   02/25 06:00
   02/26 06:00
   02/27 06:00
   02/28 06:00
   sub-Total Events = 28
[event a 02 ** 07 00 "picture"]
   02/01 07:00
   02/02 07:00
   02/03 07:00
   02/04 07:00
   02/05 07:00
   02/06 07:00
   02/07 07:00
   02/08 07:00
   02/09 07:00
   02/10 07:00
   02/11 07:00
   02/12 07:00
   02/13 07:00
   02/14 07:00
   02/15 07:00
   02/16 07:00
   02/17 07:00
   02/18 07:00
   02/19 07:00
   02/20 07:00
   02/21 07:00
   02/22 07:00
   02/23 07:00
   02/24 07:00
   02/25 07:00
   02/26 07:00
   02/27 07:00
   02/28 07:00
   sub-Total Events = 28
[event a 02 ** 08 00 "picture"]
   02/01 08:00
   02/02 08:00
   02/03 08:00
   02/04 08:00
   02/05 08:00
   02/06 08:00
   02/07 08:00
   02/08 08:00
   02/09 08:00
   02/10 08:00
   02/11 08:00
   02/12 08:00
   02/13 08:00
   02/14 08:00
   02/15 08:00
   02/16 08:00
   02/17 08:00
   02/18 08:00
   02/19 08:00
   02/20 08:00
   02/21 08:00
   02/22 08:00
   02/23 08:00
   02/24 08:00
   02/25 08:00
   02/26 08:00
   02/27 08:00
   02/28 08:00
   sub-Total Events = 28
[event a 02 ** 09 00 "picture"]
   02/01 09:00
   02/02 09:00
   02/03 09:00
   02/04 09:00
   02/05 09:00
   02/06 09:00
   02/07 09:00
   02/08 09:00
   02/09 09:00
   02/10 09:00
   02/11 09:00
   02/12 09:00
   02/13 09:00
   02/14 09:00
   02/15 09:00
   02/16 09:00
   02/17 09:00
   02/18 09:00
   02/19 09:00
   02/20 09:00
   02/21 09:00
   02/22 09:00
   02/23 09:00
   02/24 09:00
   02/25 09:00
   02/26 09:00
   02/27 09:00
   02/28 09:00
   sub-Total Events = 28
[event a 02 ** 10 00 "picture"]
   02/01 10:00
   02/02 10:00
   02/03 10:00
   02/04 10:00
   02/05 10:00
   02/06 10:00
   02/07 10:00
   02/08 10:00
   02/09 10:00
   02/10 10:00
   02/11 10:00
   02/12 10:00
   02/13 10:00
   02/14 10:00
   02/15 10:00
   02/16 10:00
   02/17 10:00
   02/18 10:00
   02/19 10:00
   02/20 10:00
   02/21 10:00
   02/22 10:00
   02/23 10:00
   02/24 10:00
   02/25 10:00
   02/26 10:00
   02/27 10:00
   02/28 10:00
   sub-Total Events = 28
[event a 03 01 05 00 "picture"]
   03/01 05:00
   sub-Total Events = 1
[event a 03 08 05 00 "picture"]
   03/08 05:00
   sub-Total Events = 1
[event a 03 15 05 00 "picture"]
   03/15 05:00
   sub-Total Events = 1
[event a 03 22 05 00 "picture"]
   03/22 05:00
   sub-Total Events = 1
[event a 03 29 05 00 "picture"]
   03/29 05:00
   sub-Total Events = 1
[event a 04 05 05 00 "picture"]
   04/05 05:00
   sub-Total Events = 1
[event a 04 12 05 00 "picture"]
   04/12 05:00
   sub-Total Events = 1
[event a 04 19 05 00 "picture"]
   04/19 05:00
   sub-Total Events = 1
[event a 04 26 05 00 "picture"]
   04/26 05:00
   sub-Total Events = 1
[event a 05 03 05 00 "picture"]
   05/03 05:00
   sub-Total Events = 1
[event a 05 10 05 00 "picture"]
   05/10 05:00
   sub-Total Events = 1
[event a 05 17 05 00 "picture"]
   05/17 05:00
   sub-Total Events = 1
[event a 05 24 05 00 "picture"]
   05/24 05:00
   sub-Total Events = 1
[event a 05 31 05 00 "picture"]
   05/31 05:00
   sub-Total Events = 1
[event a 06 07 05 00 "picture"]
   06/07 05:00
   sub-Total Events = 1
[event a 06 14 05 00 "picture"]
   06/14 05:00
   sub-Total Events = 1
[event a 06 21 05 00 "picture"]
   06/21 05:00
   sub-Total Events = 1
[event a 06 28 05 00 "picture"]
   06/28 05:00
   sub-Total Events = 1
[event a 07 05 05 00 "picture"]
   07/05 05:00
   sub-Total Events = 1
[event a 07 12 05 00 "picture"]
   07/12 05:00
   sub-Total Events = 1
[event a 07 19 05 00 "picture"]
   07/19 05:00
   sub-Total Events = 1
[event a 07 26 05 00 "picture"]
   07/26 05:00
   sub-Total Events = 1
[event a 08 02 05 00 "picture"]
   08/02 05:00
   sub-Total Events = 1
[event a 08 09 05 00 "picture"]
   08/09 05:00
   sub-Total Events = 1
[event a 08 16 05 00 "picture"]
   08/16 05:00
   sub-Total Events = 1
[event a 08 23 05 00 "picture"]
   08/23 05:00
   sub-Total Events = 1
[event a 08 30 05 00 "picture"]
   08/30 05:00
   sub-Total Events = 1
[event a 09 06 05 00 "picture"]
   09/06 05:00
   sub-Total Events = 1
[event a 09 13 05 00 "picture"]
   09/13 05:00
   sub-Total Events = 1
[event a 09 2* 05 00 "picture"]
   09/20 05:00
   09/21 05:00
   09/22 05:00
   09/23 05:00
   09/24 05:00
   09/25 05:00
   09/26 05:00
   09/27 05:00
   09/28 05:00
   09/29 05:00
   sub-Total Events = 10
[event a 09 3* 05 00 "picture"]
   09/30 05:00
   sub-Total Events = 1
[event a 10 ** 05 00 "picture"]
   10/01 05:00
   10/02 05:00
   10/03 05:00
   10/04 05:00
   10/05 05:00
   10/06 05:00
   10/07 05:00
   10/08 05:00
   10/09 05:00
   10/10 05:00
   10/11 05:00
   10/12 05:00
   10/13 05:00
   10/14 05:00
   10/15 05:00
   10/16 05:00
   10/17 05:00
   10/18 05:00
   10/19 05:00
   10/20 05:00
   10/21 05:00
   10/22 05:00
   10/23 05:00
   10/24 05:00
   10/25 05:00
   10/26 05:00
   10/27 05:00
   10/28 05:00
   10/29 05:00
   10/30 05:00
   10/31 05:00
   sub-Total Events = 31
[event a 11 ** 01 00 "picture"]
   11/01 01:00
   11/02 01:00
   11/03 01:00
   11/04 01:00
   11/05 01:00
   11/06 01:00
   11/07 01:00
   11/08 01:00
   11/09 01:00
   11/10 01:00
   11/11 01:00
   11/12 01:00
   11/13 01:00
   11/14 01:00
   11/15 01:00
   11/16 01:00
   11/17 01:00
   11/18 01:00
   11/19 01:00
   11/20 01:00
   11/21 01:00
   11/22 01:00
   11/23 01:00
   11/24 01:00
   11/25 01:00
   11/26 01:00
   11/27 01:00
   11/28 01:00
   11/29 01:00
   11/30 01:00
   sub-Total Events = 30
[event a 11 ** 02 00 "picture"]
   11/01 02:00
   11/02 02:00
   11/03 02:00
   11/04 02:00
   11/05 02:00
   11/06 02:00
   11/07 02:00
   11/08 02:00
   11/09 02:00
   11/10 02:00
   11/11 02:00
   11/12 02:00
   11/13 02:00
   11/14 02:00
   11/15 02:00
   11/16 02:00
   11/17 02:00
   11/18 02:00
   11/19 02:00
   11/20 02:00
   11/21 02:00
   11/22 02:00
   11/23 02:00
   11/24 02:00
   11/25 02:00
   11/26 02:00
   11/27 02:00
   11/28 02:00
   11/29 02:00
   11/30 02:00
   sub-Total Events = 30
[event a 11 ** 03 00 "picture"]
   11/01 03:00
   11/02 03:00
   11/03 03:00
   11/04 03:00
   11/05 03:00
   11/06 03:00
   11/07 03:00
   11/08 03:00
   11/09 03:00
   11/10 03:00
   11/11 03:00
   11/12 03:00
   11/13 03:00
   11/14 03:00
   11/15 03:00
   11/16 03:00
   11/17 03:00
   11/18 03:00
   11/19 03:00
   11/20 03:00
   11/21 03:00
   11/22 03:00
   11/23 03:00
   11/24 03:00
   11/25 03:00
   11/26 03:00
   11/27 03:00
   11/28 03:00
   11/29 03:00
   11/30 03:00
   sub-Total Events = 30
[event a 11 ** 04 00 "picture"]
   11/01 04:00
   11/02 04:00
   11/03 04:00
   11/04 04:00
   11/05 04:00
   11/06 04:00
   11/07 04:00
   11/08 04:00
   11/09 04:00
   11/10 04:00
   11/11 04:00
   11/12 04:00
   11/13 04:00
   11/14 04:00
   11/15 04:00
   11/16 04:00
   11/17 04:00
   11/18 04:00
   11/19 04:00
   11/20 04:00
   11/21 04:00
   11/22 04:00
   11/23 04:00
   11/24 04:00
   11/25 04:00
   11/26 04:00
   11/27 04:00
   11/28 04:00
   11/29 04:00
   11/30 04:00
   sub-Total Events = 30
[event a 11 ** 05 00 "picture"]
   11/01 05:00
   11/02 05:00
   11/03 05:00
   11/04 05:00
   11/05 05:00
   11/06 05:00
   11/07 05:00
   11/08 05:00
   11/09 05:00
   11/10 05:00
   11/11 05:00
   11/12 05:00
   11/13 05:00
   11/14 05:00
   11/15 05:00
   11/16 05:00
   11/17 05:00
   11/18 05:00
   11/19 05:00
   11/20 05:00
   11/21 05:00
   11/22 05:00
   11/23 05:00
   11/24 05:00
   11/25 05:00
   11/26 05:00
   11/27 05:00
   11/28 05:00
   11/29 05:00
   11/30 05:00
   sub-Total Events = 30
[event a 11 ** 06 00 "picture"]
   11/01 06:00
   11/02 06:00
   11/03 06:00
   11/04 06:00
   11/05 06:00
   11/06 06:00
   11/07 06:00
   11/08 06:00
   11/09 06:00
   11/10 06:00
   11/11 06:00
   11/12 06:00
   11/13 06:00
   11/14 06:00
   11/15 06:00
   11/16 06:00
   11/17 06:00
   11/18 06:00
   11/19 06:00
   11/20 06:00
   11/21 06:00
   11/22 06:00
   11/23 06:00
   11/24 06:00
   11/25 06:00
   11/26 06:00
   11/27 06:00
   11/28 06:00
   11/29 06:00
   11/30 06:00
   sub-Total Events = 30
[event a 11 ** 07 00 "picture"]
   11/01 07:00
   11/02 07:00
   11/03 07:00
   11/04 07:00
   11/05 07:00
   11/06 07:00
   11/07 07:00
   11/08 07:00
   11/09 07:00
   11/10 07:00
   11/11 07:00
   11/12 07:00
   11/13 07:00
   11/14 07:00
   11/15 07:00
   11/16 07:00
   11/17 07:00
   11/18 07:00
   11/19 07:00
   11/20 07:00
   11/21 07:00
   11/22 07:00
   11/23 07:00
   11/24 07:00
   11/25 07:00
   11/26 07:00
   11/27 07:00
   11/28 07:00
   11/29 07:00
   11/30 07:00
   sub-Total Events = 30
[event a 11 ** 08 00 "picture"]
   11/01 08:00
   11/02 08:00
   11/03 08:00
   11/04 08:00
   11/05 08:00
   11/06 08:00
   11/07 08:00
   11/08 08:00
   11/09 08:00
   11/10 08:00
   11/11 08:00
   11/12 08:00
   11/13 08:00
   11/14 08:00
   11/15 08:00
   11/16 08:00
   11/17 08:00
   11/18 08:00
   11/19 08:00
   11/20 08:00
   11/21 08:00
   11/22 08:00
   11/23 08:00
   11/24 08:00
   11/25 08:00
   11/26 08:00
   11/27 08:00
   11/28 08:00
   11/29 08:00
   11/30 08:00
   sub-Total Events = 30
[event a 11 ** 09 00 "picture"]
   11/01 09:00
   11/02 09:00
   11/03 09:00
   11/04 09:00
   11/05 09:00
   11/06 09:00
   11/07 09:00
   11/08 09:00
   11/09 09:00
   11/10 09:00
   11/11 09:00
   11/12 09:00
   11/13 09:00
   11/14 09:00
   11/15 09:00
   11/16 09:00
   11/17 09:00
   11/18 09:00
   11/19 09:00
   11/20 09:00
   11/21 09:00
   11/22 09:00
   11/23 09:00
   11/24 09:00
   11/25 09:00
   11/26 09:00
   11/27 09:00
   11/28 09:00
   11/29 09:00
   11/30 09:00
   sub-Total Events = 30
[event a 11 ** 10 00 "picture"]
   11/01 10:00
   11/02 10:00
   11/03 10:00
   11/04 10:00
   11/05 10:00
   11/06 10:00
   11/07 10:00
   11/08 10:00
   11/09 10:00
   11/10 10:00
   11/11 10:00
   11/12 10:00
   11/13 10:00
   11/14 10:00
   11/15 10:00
   11/16 10:00
   11/17 10:00
   11/18 10:00
   11/19 10:00
   11/20 10:00
   11/21 10:00
   11/22 10:00
   11/23 10:00
   11/24 10:00
   11/25 10:00
   11/26 10:00
   11/27 10:00
   11/28 10:00
   11/29 10:00
   11/30 10:00
   sub-Total Events = 30
[event a 12 ** 01 00 "picture"]
   12/01 01:00
   12/02 01:00
   12/03 01:00
   12/04 01:00
   12/05 01:00
   12/06 01:00
   12/07 01:00
   12/08 01:00
   12/09 01:00
   12/10 01:00
   12/11 01:00
   12/12 01:00
   12/13 01:00
   12/14 01:00
   12/15 01:00
   12/16 01:00
   12/17 01:00
   12/18 01:00
   12/19 01:00
   12/20 01:00
   12/21 01:00
   12/22 01:00
   12/23 01:00
   12/24 01:00
   12/25 01:00
   12/26 01:00
   12/27 01:00
   12/28 01:00
   12/29 01:00
   12/30 01:00
   12/31 01:00
   sub-Total Events = 31
[event a 12 ** 02 00 "picture"]
   12/01 02:00
   12/02 02:00
   12/03 02:00
   12/04 02:00
   12/05 02:00
   12/06 02:00
   12/07 02:00
   12/08 02:00
   12/09 02:00
   12/10 02:00
   12/11 02:00
   12/12 02:00
   12/13 02:00
   12/14 02:00
   12/15 02:00
   12/16 02:00
   12/17 02:00
   12/18 02:00
   12/19 02:00
   12/20 02:00
   12/21 02:00
   12/22 02:00
   12/23 02:00
   12/24 02:00
   12/25 02:00
   12/26 02:00
   12/27 02:00
   12/28 02:00
   12/29 02:00
   12/30 02:00
   12/31 02:00
   sub-Total Events = 31
[event a 12 ** 03 00 "picture"]
   12/01 03:00
   12/02 03:00
   12/03 03:00
   12/04 03:00
   12/05 03:00
   12/06 03:00
   12/07 03:00
   12/08 03:00
   12/09 03:00
   12/10 03:00
   12/11 03:00
   12/12 03:00
   12/13 03:00
   12/14 03:00
   12/15 03:00
   12/16 03:00
   12/17 03:00
   12/18 03:00
   12/19 03:00
   12/20 03:00
   12/21 03:00
   12/22 03:00
   12/23 03:00
   12/24 03:00
   12/25 03:00
   12/26 03:00
   12/27 03:00
   12/28 03:00
   12/29 03:00
   12/30 03:00
   12/31 03:00
   sub-Total Events = 31
[event a 12 ** 04 00 "picture"]
   12/01 04:00
   12/02 04:00
   12/03 04:00
   12/04 04:00
   12/05 04:00
   12/06 04:00
   12/07 04:00
   12/08 04:00
   12/09 04:00
   12/10 04:00
   12/11 04:00
   12/12 04:00
   12/13 04:00
   12/14 04:00
   12/15 04:00
   12/16 04:00
   12/17 04:00
   12/18 04:00
   12/19 04:00
   12/20 04:00
   12/21 04:00
   12/22 04:00
   12/23 04:00
   12/24 04:00
   12/25 04:00
   12/26 04:00
   12/27 04:00
   12/28 04:00
   12/29 04:00
   12/30 04:00
   12/31 04:00
   sub-Total Events = 31
[event a 12 ** 05 00 "picture"]
   12/01 05:00
   12/02 05:00
   12/03 05:00
   12/04 05:00
   12/05 05:00
   12/06 05:00
   12/07 05:00
   12/08 05:00
   12/09 05:00
   12/10 05:00
   12/11 05:00
   12/12 05:00
   12/13 05:00
   12/14 05:00
   12/15 05:00
   12/16 05:00
   12/17 05:00
   12/18 05:00
   12/19 05:00
   12/20 05:00
   12/21 05:00
   12/22 05:00
   12/23 05:00
   12/24 05:00
   12/25 05:00
   12/26 05:00
   12/27 05:00
   12/28 05:00
   12/29 05:00
   12/30 05:00
   12/31 05:00
   sub-Total Events = 31
[event a 12 ** 06 00 "picture"]
   12/01 06:00
   12/02 06:00
   12/03 06:00
   12/04 06:00
   12/05 06:00
   12/06 06:00
   12/07 06:00
   12/08 06:00
   12/09 06:00
   12/10 06:00
   12/11 06:00
   12/12 06:00
   12/13 06:00
   12/14 06:00
   12/15 06:00
   12/16 06:00
   12/17 06:00
   12/18 06:00
   12/19 06:00
   12/20 06:00
   12/21 06:00
   12/22 06:00
   12/23 06:00
   12/24 06:00
   12/25 06:00
   12/26 06:00
   12/27 06:00
   12/28 06:00
   12/29 06:00
   12/30 06:00
   12/31 06:00
   sub-Total Events = 31
[event a 12 ** 07 00 "picture"]
   12/01 07:00
   12/02 07:00
   12/03 07:00
   12/04 07:00
   12/05 07:00
   12/06 07:00
   12/07 07:00
   12/08 07:00
   12/09 07:00
   12/10 07:00
   12/11 07:00
   12/12 07:00
   12/13 07:00
   12/14 07:00
   12/15 07:00
   12/16 07:00
   12/17 07:00
   12/18 07:00
   12/19 07:00
   12/20 07:00
   12/21 07:00
   12/22 07:00
   12/23 07:00
   12/24 07:00
   12/25 07:00
   12/26 07:00
   12/27 07:00
   12/28 07:00
   12/29 07:00
   12/30 07:00
   12/31 07:00
   sub-Total Events = 31
[event a 12 ** 08 00 "picture"]
   12/01 08:00
   12/02 08:00
   12/03 08:00
   12/04 08:00
   12/05 08:00
   12/06 08:00
   12/07 08:00
   12/08 08:00
   12/09 08:00
   12/10 08:00
   12/11 08:00
   12/12 08:00
   12/13 08:00
   12/14 08:00
   12/15 08:00
   12/16 08:00
   12/17 08:00
   12/18 08:00
   12/19 08:00
   12/20 08:00
   12/21 08:00
   12/22 08:00
   12/23 08:00
   12/24 08:00
   12/25 08:00
   12/26 08:00
   12/27 08:00
   12/28 08:00
   12/29 08:00
   12/30 08:00
   12/31 08:00
   sub-Total Events = 31
[event a 12 ** 09 00 "picture"]
   12/01 09:00
   12/02 09:00
   12/03 09:00
   12/04 09:00
   12/05 09:00
   12/06 09:00
   12/07 09:00
   12/08 09:00
   12/09 09:00
   12/10 09:00
   12/11 09:00
   12/12 09:00
   12/13 09:00
   12/14 09:00
   12/15 09:00
   12/16 09:00
   12/17 09:00
   12/18 09:00
   12/19 09:00
   12/20 09:00
   12/21 09:00
   12/22 09:00
   12/23 09:00
   12/24 09:00
   12/25 09:00
   12/26 09:00
   12/27 09:00
   12/28 09:00
   12/29 09:00
   12/30 09:00
   12/31 09:00
   sub-Total Events = 31
[event a 12 ** 10 00 "picture"]
   12/01 10:00
   12/02 10:00
   12/03 10:00
   12/04 10:00
   12/05 10:00
   12/06 10:00
   12/07 10:00
   12/08 10:00
   12/09 10:00
   12/10 10:00
   12/11 10:00
   12/12 10:00
   12/13 10:00
   12/14 10:00
   12/15 10:00
   12/16 10:00
   12/17 10:00
   12/18 10:00
   12/19 10:00
   12/20 10:00
   12/21 10:00
   12/22 10:00
   12/23 10:00
   12/24 10:00
   12/25 10:00
   12/26 10:00
   12/27 10:00
   12/28 10:00
   12/29 10:00
   12/30 10:00
   12/31 10:00
   sub-Total Events = 31
Total Events = 1636

